{
  "apps": [
    {
      "name": "my-app",
      "script": "./index.js",
      "instances": "1",
      "exec_mode": "cluster",
      "error_file": "./logs/my-app.error.log",
      "out_file": "./logs/my-app.log",
      "log_date_format": "YYYY-MM-DD HH:mm Z",
      "kill_timeout": "10000"
    }
  ]
}
